#version 410

const int MAX_POINT_LIGHTS = 2;
const int MAX_SPOT_LIGHTS = 2;

in vec2 TexCoord;                                                                 
in vec3 Normal;                                                                   
in vec3 WorldPos;  

struct VSOutput{                                                                                    
    vec2 TexCoord;                                                                 
    vec3 Normal;                                                                   
    vec3 WorldPos;                                                                 
};

struct BaseLight
{
    vec3 Color;
    float AmbientIntensity;
    float DiffuseIntensity;
};

struct DirectionalLight
{
    BaseLight Base;
    vec3 Direction;
};
                                                                                    
struct Attenuation                                                                  
{                                                                                   
    float Constant;                                                                 
    float Linear;                                                                   
    float Exp;                                                                      
};                                                                                  
                                                                                    
struct PointLight                                                                           
{                                                                                           
    BaseLight Base;                                                                  
    vec3 Position;                                                                          
    Attenuation Atten;                                                                      
};                                                                                          
                                                                                            
struct SpotLight                                                                            
{                                                                                           
    PointLight Base;                                                                 
    vec3 Direction;                                                                         
    float Cutoff;                                                                           
};                                                                                          
                                                                                            
uniform int gNumPointLights;                                                                
uniform int gNumSpotLights;                                                                 
uniform DirectionalLight gDirectionalLight;                                                 
uniform PointLight gPointLights[MAX_POINT_LIGHTS];                                          
uniform SpotLight gSpotLights[MAX_SPOT_LIGHTS];                                             
uniform sampler2D gColorMap;                                                                
uniform vec3 gEyeWorldPos;                                                                  
uniform float gMatSpecularIntensity;                                                        
uniform float gSpecularPower; 

vec4 CalcLightInternal(BaseLight Light, vec3 LightDirection, VSOutput In)            
{                                                                                           
    vec4 AmbientColor = vec4(Light.Color, 1.0f) * Light.AmbientIntensity;                   
    float DiffuseFactor = dot(In.Normal, -LightDirection);                                     
                                                                                            
    vec4 DiffuseColor  = vec4(0, 0, 0, 0);                                                  
    vec4 SpecularColor = vec4(0, 0, 0, 0);                                                  
                                                                                            
    if (DiffuseFactor > 0) {                                                                
        DiffuseColor = vec4(Light.Color, 1.0f) * Light.DiffuseIntensity * DiffuseFactor;    
                                                                                            
        vec3 VertexToEye = normalize(gEyeWorldPos - In.WorldPos);                             
        vec3 LightReflect = normalize(reflect(LightDirection, In.Normal));                     
        float SpecularFactor = dot(VertexToEye, LightReflect);                              
        SpecularFactor = pow(SpecularFactor, gSpecularPower);                               
        if (SpecularFactor > 0) {                                                           
            SpecularColor = vec4(Light.Color, 1.0f) *                                       
                            gMatSpecularIntensity * SpecularFactor;                         
        }                                                                                   
    }                                                                                       
                                                                                            
    return (AmbientColor + DiffuseColor + SpecularColor);                                   
}                                                                                           
                                                                                            
vec4 CalcDirectionalLight(VSOutput In)                                                      
{                                                                                           
    return CalcLightInternal(gDirectionalLight.Base, gDirectionalLight.Direction, In);  
}                                                                                           
                                                                                            
vec4 CalcPointLight(PointLight l, VSOutput In)                                       
{                                                                                           
    vec3 LightDirection = In.WorldPos - l.Position;                                           
    float Distance = length(LightDirection);                                                
    LightDirection = normalize(LightDirection);                                             
                                                                                            
    vec4 Color = CalcLightInternal(l.Base, LightDirection, In);                         
    float Attenuation =  l.Atten.Constant +                                                 
                         l.Atten.Linear * Distance +                                        
                         l.Atten.Exp * Distance * Distance;                                 
                                                                                            
    return Color / Attenuation;                                                             
}                                                                                           
                                                                                            
vec4 CalcSpotLight(SpotLight l, VSOutput In)                                         
{                                                                                           
    vec3 LightToPixel = normalize(In.WorldPos - l.Base.Position);                             
    float SpotFactor = dot(LightToPixel, l.Direction);                                      
                                                                                            
    if (SpotFactor > l.Cutoff) {                                                            
        vec4 Color = CalcPointLight(l.Base, In);                                        
        return Color * (1.0 - (1.0 - SpotFactor) * 1.0/(1.0 - l.Cutoff));                   
    }                                                                                       
    else {                                                                                  
        return vec4(0,0,0,0);                                                               
    }                                                                                       
}                                                                                           
                                                                                            
void main()
{  
	VSOutput input;
	
    input.TexCoord = TexCoord;
    input.Normal = normalize(Normal);
    input.WorldPos = WorldPos;                                                                 
  
    vec4 TotalLight = CalcDirectionalLight(input);                                         
                                                                                            
    for (int i = 0 ; i < gNumPointLights ; i++) {                                           
        TotalLight += CalcPointLight(gPointLights[i], input);                              
    }                                                                                       
                                                                                            
    for (int i = 0 ; i < gNumSpotLights ; i++) {                                            
        TotalLight += CalcSpotLight(gSpotLights[i], input);                                
    }                                                                                       
                                                                                            
    gl_FragColor = texture(gColorMap, input.TexCoord.xy) * TotalLight;  
}